Division,WeightClassKg,Place,Name,Team,BodyweightKg,Best3SquatKg,Best3BenchKg,Best3DeadliftKg,TotalKg,Equipment,Event,Sex,BirthDate
Girls,44.23,1,Michaela Grimm,Copperas Cove,39.55,92.99,47.63,95.25,235.87,Unlimited,SBD,F,
Girls,44.23,2,Zoe De La Cruz,Del Valle,43.45,83.91,43.09,90.72,217.72,Unlimited,SBD,F,
Girls,44.23,3,Taylor Marines,Pflugerville Hendrickson,38.56,72.57,45.36,72.57,190.51,Unlimited,SBD,F,
Girls,44.23,4,Adalina Martinez,Del Valle,44,68.04,36.29,79.38,183.7,Unlimited,SBD,F,
Girls,44.23,5,Jaci Garcia,Giddings,41.55,68.04,29.48,77.11,174.63,Unlimited,SBD,F,
Girls,44.23,6,Blythe Edwards,Smithville,43.86,70.31,36.29,49.9,156.49,Unlimited,SBD,F,
Girls,44.23,7,Eleyana Romero,Smithville,38.92,56.7,29.48,68.04,154.22,Unlimited,SBD,F,
Girls,44.23,8,Amariah Mendoza,Manor,44,61.23,29.48,56.7,147.42,Unlimited,SBD,F,
Girls,44.23,DQ,Andrea Sombrano,Smithville,42.73,52.16,27.22,,,Unlimited,SBD,F,
Girls,47.85,1,Avery Koonce,Thrall,47.63,111.13,54.43,115.67,281.23,Unlimited,SBD,F,
Girls,47.85,2,Beth Stracener,College Station,47.85,108.86,54.43,104.33,267.62,Unlimited,SBD,F,
Girls,47.85,3,Zoey Smith,Elgin,45.81,104.33,49.9,104.33,258.55,Unlimited,SBD,F,
Girls,47.85,4,Talia Yanez,Thrall,46.27,99.79,43.09,99.79,242.67,Unlimited,SBD,F,
Girls,47.85,5,Katherine Grimm,Copperas Cove,45.4,99.79,52.16,79.38,231.33,Unlimited,SBD,F,
Girls,47.85,6,Meta Elliot,Elgin,47.08,81.65,45.36,92.99,219.99,Unlimited,SBD,F,
Girls,47.85,7,Guadelupe Anguiano-Garcia,Bastrop Cedar Creek,44.36,72.57,34.02,81.65,188.24,Unlimited,SBD,F,
Girls,47.85,8,Addi Ward,Thrall,47.85,72.57,31.75,72.57,176.9,Unlimited,SBD,F,
Girls,47.85,9,Ylitza Finney,Copperas Cove,47.63,61.23,36.29,72.57,170.1,Unlimited,SBD,F,
Girls,51.94,1,Elizabeth Nunez,Elgin,51.8,167.83,90.72,138.35,396.89,Unlimited,SBD,F,
Girls,51.94,2,Rylie Dlouhy,Taylor,51.57,133.81,70.31,142.88,347,Unlimited,SBD,F,
Girls,51.94,3,Laura Rife,College Station,50.35,124.74,49.9,106.59,281.23,Unlimited,SBD,F,
Girls,51.94,4,Shantel Harlow,Smithville,51.3,102.06,58.97,120.2,281.23,Unlimited,SBD,F,
Girls,51.94,5,Zoe Moore,Taylor,51.07,90.72,61.23,108.86,260.82,Unlimited,SBD,F,
Girls,51.94,6,Chloe Flores,Copperas Cove,51.35,90.72,58.97,102.06,251.74,Unlimited,SBD,F,
Girls,51.94,7,Kayla Pineda,Bryan Rudder,50.03,99.79,47.63,97.52,244.94,Unlimited,SBD,F,
Girls,51.94,8,Jaycee Chandler,Thrall,51.39,99.79,45.36,99.79,244.94,Unlimited,SBD,F,
Girls,51.94,9,Irene Flores,Thorndale,50.39,86.18,43.09,90.72,219.99,Unlimited,SBD,F,
Girls,51.94,10,Nhi Nguyen,Pflugerville Connally,51.75,74.84,36.29,95.25,206.38,Unlimited,SBD,F,
Girls,51.94,11,Yarelin Lozano,Bastrop,51.21,79.38,38.56,83.91,201.85,Unlimited,SBD,F,
Girls,51.94,12,Katelyn Anderson,Elgin,51.89,72.57,31.75,92.99,197.31,Unlimited,SBD,F,
Girls,51.94,DQ,Venessa Hernandez,Giddings,51.71,,,,,Unlimited,SBD,F,
Girls,56.02,1,Maria Yanez,Elgin,54.98,183.7,81.65,142.88,408.23,Unlimited,SBD,F,
Girls,56.02,2,A Mya Moss,Copperas Cove,56.02,149.69,79.38,145.15,374.21,Unlimited,SBD,F,
Girls,56.02,3,Rosie Driscoll,Del Valle,55.61,129.27,83.91,124.74,337.93,Unlimited,SBD,F,
Girls,56.02,4,Kayla Herrera,Giddings,55.88,131.54,70.31,136.08,337.93,Unlimited,SBD,F,
Girls,56.02,5,Deysey Sanchez,Elgin,54.34,106.59,79.38,120.2,306.17,Unlimited,SBD,F,
Girls,56.02,6,Evelyn De Leon,Del Valle,54.48,106.59,47.63,113.4,267.62,Unlimited,SBD,F,
Girls,56.02,7,Mikayla Velasquez,Thrall,55.61,97.52,49.9,113.4,260.82,Unlimited,SBD,F,
Girls,56.02,8,Raya Powell,Smithville,54.11,97.52,52.16,106.59,256.28,Unlimited,SBD,F,
Girls,56.02,9,Belle Roberson,Thorndale,54.79,102.06,52.16,97.52,251.74,Unlimited,SBD,F,
Girls,56.02,10,Rosemary Perez,Del Valle,54.43,95.25,45.36,104.33,244.94,Unlimited,SBD,F,
Girls,56.02,11,Emma Elizondo,Pflugerville Hendrickson,52.48,95.25,45.36,102.06,242.67,Unlimited,SBD,F,
Girls,56.02,12,Vanessa Diaz,Taylor,55.02,88.45,52.16,90.72,231.33,Unlimited,SBD,F,
Girls,56.02,13,Heidi Cox,Thrall,55.88,83.91,45.36,102.06,231.33,Unlimited,SBD,F,
Girls,56.02,14,Ray Kailey,Pflugerville Hendrickson,55.47,72.57,49.9,104.33,226.8,Unlimited,SBD,F,
Girls,56.02,15,Tate Griffin,Weimar,54.61,81.65,45.36,90.72,217.72,Unlimited,SBD,F,
Girls,56.02,16,Lexi Douglas,Elgin,55.16,68.04,47.63,79.38,195.04,Unlimited,SBD,F,
Girls,56.02,17,Janell Hernandez,Bastrop Cedar Creek,53.57,70.31,31.75,77.11,179.17,Unlimited,SBD,F,
Girls,56.02,18,Ashley Bonilla,Elgin,55.97,65.77,40.82,68.04,174.63,Unlimited,SBD,F,
Girls,56.02,19,Kim Ibarra,Bastrop Cedar Creek,55.02,52.16,29.48,63.5,145.15,Unlimited,SBD,F,
Girls,60.1,1,Keileigh Bowie,College Station,59.74,158.76,86.18,136.08,381.02,Unlimited,SBD,F,
Girls,60.1,2,Kyan Ramos,Copperas Cove,59.38,124.74,72.57,117.93,315.25,Unlimited,SBD,F,
Girls,60.1,3,Eliana Aleman,Taylor,60.1,129.27,72.57,113.4,315.25,Unlimited,SBD,F,
Girls,60.1,4,Camden Lechler,College Station,57.33,113.4,61.23,129.27,303.91,Unlimited,SBD,F,
Girls,60.1,5,Jessica Dominguez Lackey,Elgin,56.34,111.13,74.84,111.13,297.1,Unlimited,SBD,F,
Girls,60.1,6,Brianna Ruiz,Del Valle,57.97,136.08,56.7,104.33,297.1,Unlimited,SBD,F,
Girls,60.1,7,Emily Estrada,Manor,59.69,108.86,61.23,117.93,288.03,Unlimited,SBD,F,
Girls,60.1,8,Emery Bayer,Smithville,58.01,115.67,56.7,102.06,274.42,Unlimited,SBD,F,
Girls,60.1,9,Sofia Farelas,Pflugerville Connally,60.1,104.33,61.23,95.25,260.82,Unlimited,SBD,F,
Girls,60.1,10,Andrea Villanueva,Pflugerville Hendrickson,58.6,102.06,43.09,108.86,254.01,Unlimited,SBD,F,
Girls,60.1,11,Skylynn Childers,Copperas Cove,57.65,97.52,52.16,99.79,249.48,Unlimited,SBD,F,
Girls,60.1,12,Joanna Ngim,Smithville,58.33,95.25,52.16,102.06,249.48,Unlimited,SBD,F,
Girls,60.1,13,Christina Beard,Giddings,59.96,90.72,40.82,113.4,244.94,Unlimited,SBD,F,
Girls,60.1,14,Haleigh Poser,Copperas Cove,58.56,92.99,52.16,92.99,238.14,Unlimited,SBD,F,
Girls,60.1,15,Julia Stambolie,Thrall,59.78,88.45,47.63,92.99,229.06,Unlimited,SBD,F,
Girls,60.1,16,Ellie Sierra,Pflugerville Connally,56.56,70.31,61.23,88.45,219.99,Unlimited,SBD,F,
Girls,60.1,17,Kionna Brown,Manor,56.74,74.84,45.36,97.52,217.72,Unlimited,SBD,F,
Girls,60.1,18,Zoey Morales,Manor,60.06,86.18,40.82,79.38,206.38,Unlimited,SBD,F,
Girls,60.1,19,Ryann Mendoza,Bryan Rudder,59.87,61.23,43.09,90.72,195.04,Unlimited,SBD,F,
Girls,60.1,20,Kylah Stewart,Bryan,58.74,70.31,29.48,81.65,181.44,Unlimited,SBD,F,
Girls,60.1,21,Aislyn Wilson,Thorndale,59.19,70.31,36.29,68.04,174.63,Unlimited,SBD,F,
Girls,60.1,DQ,Amalia Lopez,Taylor,59.87,,,,,Unlimited,SBD,F,
Girls,60.1,DQ,Samantha Zapata,Pflugerville Connally,59.87,,,,,Unlimited,SBD,F,
Girls,60.1,DQ,Arisbeth Segundo,Giddings,59.01,133.81,,,,Unlimited,SBD,F,
Girls,67.36,1,Ryan Doggett,Pflugerville Hendrickson,66.18,158.76,108.86,154.22,421.84,Unlimited,SBD,F,
Girls,67.36,2,Azucena Esqueda Rodriguez,Del Valle,67.13,174.63,74.84,172.37,421.84,Unlimited,SBD,F,
Girls,67.36,3,Jordin Seeger,Elgin,64.23,154.22,97.52,163.29,415.04,Unlimited,SBD,F,
Girls,67.36,4,Danielle King,Elgin,65.09,142.88,106.59,140.61,390.09,Unlimited,SBD,F,
Girls,67.36,5,Giovanna Castellani,College Station,67.13,163.29,81.65,136.08,381.02,Unlimited,SBD,F,
Girls,67.36,6,Jacee Oehlert,College Station,67.13,156.49,65.77,142.88,365.14,Unlimited,SBD,F,
Girls,67.36,7,Ri'Queleigh Holmes-Grant,Taylor,64.95,138.35,77.11,142.88,358.34,Unlimited,SBD,F,
Girls,67.36,8,Kimberly Sanchez Lozano,Bryan Rudder,63.14,136.08,70.31,124.74,331.12,Unlimited,SBD,F,
Girls,67.36,9,Angelyn Falcon,Pflugerville Hendrickson,60.42,129.27,70.31,129.27,328.85,Unlimited,SBD,F,
Girls,67.36,10,Rebecca Burkhard,Pflugerville Hendrickson,65,111.13,81.65,120.2,312.98,Unlimited,SBD,F,
Girls,67.36,11,Zowie Lee,Weimar,66.86,131.54,68.04,108.86,308.44,Unlimited,SBD,F,
Girls,67.36,12,Lauren Riojas,Pflugerville Hendrickson,66.72,124.74,56.7,117.93,299.37,Unlimited,SBD,F,
Girls,67.36,13,Deborah Reis,Pflugerville Hendrickson,66.36,117.93,56.7,111.13,285.76,Unlimited,SBD,F,
Girls,67.36,14,Ariyana Alexander,Elgin,66.95,106.59,65.77,108.86,281.23,Unlimited,SBD,F,
Girls,67.36,15,Lizbeth Lopez,Del Valle,62.91,111.13,49.9,111.13,272.16,Unlimited,SBD,F,
Girls,67.36,16,Tamaya Mercer,Manor,66,97.52,54.43,111.13,263.08,Unlimited,SBD,F,
Girls,67.36,17,Karina Hall-Albavera,Taylor,67.13,97.52,65.77,99.79,263.08,Unlimited,SBD,F,
Girls,67.36,18,Madeline Padron,Elgin,64.59,97.52,52.16,108.86,258.55,Unlimited,SBD,F,
Girls,67.36,19,Carmen Rathburn,Thrall,65.32,95.25,65.77,95.25,256.28,Unlimited,SBD,F,
Girls,67.36,20,Haylie Goodman,Copperas Cove,65.41,83.91,58.97,108.86,251.74,Unlimited,SBD,F,
Girls,67.36,21,Kayden Wilde,Smithville,63.78,102.06,54.43,90.72,247.21,Unlimited,SBD,F,
Girls,67.36,22,Way Paw,Manor,60.46,108.86,49.9,86.18,244.94,Unlimited,SBD,F,
Girls,67.36,23,Bella Navejas,Elgin,62.78,79.38,47.63,108.86,235.87,Unlimited,SBD,F,
Girls,67.36,24,Claire Natal,Bastrop Cedar Creek,66.22,83.91,54.43,90.72,229.06,Unlimited,SBD,F,
Girls,67.36,25,Jaelyn Barker,Elgin,64.95,74.84,43.09,106.59,224.53,Unlimited,SBD,F,
Girls,67.36,26,Rylee Smolik,Giddings,67.13,81.65,45.36,88.45,215.46,Unlimited,SBD,F,
Girls,67.36,27,Ashlyn Glade,Bryan,65.86,74.84,38.56,95.25,208.65,Unlimited,SBD,F,
Girls,67.36,28,Ashanti Gilman,Giddings,67.13,72.57,47.63,79.38,199.58,Unlimited,SBD,F,
Girls,67.36,29,Lauren Natal,Bastrop Cedar Creek,67.27,74.84,43.09,79.38,197.31,Unlimited,SBD,F,
Girls,67.36,30,Bianca Ugarte,Pflugerville Connally,63.64,77.11,43.09,74.84,195.04,Unlimited,SBD,F,
Girls,67.36,31,Isabella Pena,Manor New Tech,65.23,65.77,29.48,83.91,179.17,Unlimited,SBD,F,
Girls,67.36,DQ,Jordyn Stutts,Thorndale,67.13,,,,,Unlimited,SBD,F,
Girls,67.36,DQ,Madison Barber,College Station,64.27,142.88,65.77,,,Unlimited,SBD,F,
Girls,67.36,DQ,Phoenix Garcia,Bastrop,65.86,83.91,,,,Unlimited,SBD,F,
Girls,75.07,1,Jessica Kolodziejczyk,College Station,69.63,183.7,83.91,147.42,415.04,Unlimited,SBD,F,
Girls,75.07,2,Holley Matthews,Pflugerville Hendrickson,73.03,140.61,68.04,174.63,383.29,Unlimited,SBD,F,
Girls,75.07,3,Ashley Harris,College Station,69.63,142.88,70.31,136.08,349.27,Unlimited,SBD,F,
Girls,75.07,4,Anaiya Reed,Bryan,71.76,113.4,52.16,133.81,299.37,Unlimited,SBD,F,
Girls,75.07,5,Hannah Sagebiel,Bastrop,75.07,117.93,56.7,124.74,299.37,Unlimited,SBD,F,
Girls,75.07,6,Ariana Concha,Taylor,73.94,120.2,61.23,113.4,294.84,Unlimited,SBD,F,
Girls,75.07,7,Camryn Hall,Bastrop Cedar Creek,67.59,102.06,72.57,115.67,290.3,Unlimited,SBD,F,
Girls,75.07,8,Lilly Slough,Thrall,69.72,108.86,63.5,113.4,285.76,Unlimited,SBD,F,
Girls,75.07,9,Liliana Perez,Del Valle,72.44,106.59,47.63,111.13,265.35,Unlimited,SBD,F,
Girls,75.07,10,Arielle Spence,Manor New Tech,73.8,97.52,49.9,115.67,263.08,Unlimited,SBD,F,
Girls,75.07,11,Alayna Ramirez,Thorndale,72.03,92.99,63.5,102.06,258.55,Unlimited,SBD,F,
Girls,75.07,12,Caitlyn Grange,Giddings,71.49,97.52,52.16,106.59,256.28,Unlimited,SBD,F,
Girls,75.07,13,Bella Rodriguez,Elgin,71.85,95.25,54.43,102.06,251.74,Unlimited,SBD,F,
Girls,75.07,14,Dani Leal,Manor,67.4,99.79,43.09,104.33,247.21,Unlimited,SBD,F,
Girls,75.07,15,Elagah Brandyburg,Smithville,72.12,99.79,43.09,104.33,247.21,Unlimited,SBD,F,
Girls,75.07,16,Sophia Ugarte,Pflugerville Connally,73.44,97.52,47.63,97.52,242.67,Unlimited,SBD,F,
Girls,75.07,17,Christy Natal,Bastrop Cedar Creek,69.99,102.06,45.36,92.99,240.4,Unlimited,SBD,F,
Girls,75.07,18,Payten Alamillo,Smithville,74.39,72.57,52.16,99.79,224.53,Unlimited,SBD,F,
Girls,75.07,19,Trinity Sosa,Bastrop Cedar Creek,74.98,77.11,47.63,90.72,215.46,Unlimited,SBD,F,
Girls,75.07,20,Kenia Cuellar,Elgin,72.76,81.65,34.02,81.65,197.31,Unlimited,SBD,F,
Girls,75.07,21,Suleyma Hernandez,Elgin,70.76,65.77,36.29,90.72,192.78,Unlimited,SBD,F,
Girls,75.07,DQ,Emily Nieves,Manor,71.4,,,,,Unlimited,SBD,F,
Girls,75.07,DQ,Ariel Reyes,Bryan,74.84,,,,,Unlimited,SBD,F,
Girls,82.33,1,Avery Mueller,Giddings,75.3,163.29,97.52,138.35,399.16,Unlimited,SBD,F,
Girls,82.33,2,Grace Hagen,Elgin,82.28,158.76,72.57,151.95,383.29,Unlimited,SBD,F,
Girls,82.33,3,Alexia Perez,Elgin,77.2,115.67,81.65,127.01,324.32,Unlimited,SBD,F,
Girls,82.33,4,Mia Ndika,Pflugerville Hendrickson,78.7,117.93,61.23,131.54,310.71,Unlimited,SBD,F,
Girls,82.33,5,Citlalli Jiminez,Elgin,78.56,111.13,68.04,102.06,281.23,Unlimited,SBD,F,
Girls,82.33,6,Marisela Natal,Bastrop Cedar Creek,78.83,117.93,52.16,111.13,281.23,Unlimited,SBD,F,
Girls,82.33,7,Mayte Jimenez,Taylor,77.84,117.93,54.43,104.33,276.69,Unlimited,SBD,F,
Girls,82.33,8,Trinity Aulabaugh,Copperas Cove,75.48,108.86,54.43,106.59,269.89,Unlimited,SBD,F,
Girls,82.33,9,Gabriela Nunez,Manor New Tech,75.11,81.65,38.56,97.52,217.72,Unlimited,SBD,F,
Girls,82.33,DQ,Chassity Navarette,Smithville,82.1,,,,,Unlimited,SBD,F,
Girls,82.33,DQ,Nicolette Villarreal,Taylor,78.38,102.06,,,,Unlimited,SBD,F,
Girls,82.33,DQ,Jordyn January,Pflugerville Hendrickson,80.97,140.61,,,,Unlimited,SBD,F,
Girls,90.04,1,Jaiden Saucedo,Giddings,88.99,174.63,115.67,127.01,417.3,Unlimited,SBD,F,
Girls,90.04,2,Stephanie Mendoza,Del Valle,88.31,158.76,79.38,142.88,381.02,Unlimited,SBD,F,
Girls,90.04,3,Aniya Taylor,College Station,83.73,158.76,77.11,136.08,371.95,Unlimited,SBD,F,
Girls,90.04,4,Hannah Miller,Bryan,87.59,149.69,77.11,142.88,369.68,Unlimited,SBD,F,
Girls,90.04,5,Dakota Johnson,Thrall,84.28,115.67,77.11,127.01,319.78,Unlimited,SBD,F,
Girls,90.04,6,Alyna Monreal-Cancino,Bastrop Cedar Creek,89.81,127.01,49.9,138.35,315.25,Unlimited,SBD,F,
Girls,90.04,7,Madison Young,Bastrop,89.86,111.13,56.7,117.93,285.76,Unlimited,SBD,F,
Girls,90.04,8,Mayra Garcia,Elgin,85.73,102.06,79.38,102.06,283.5,Unlimited,SBD,F,
Girls,90.04,9,Elise Rhodes,Elgin,88.36,104.33,61.23,115.67,281.23,Unlimited,SBD,F,
Girls,90.04,10,Leezett Rodriguez,Manor,83.32,124.74,52.16,95.25,272.16,Unlimited,SBD,F,
Girls,90.04,11,Aurelia Guerrero,Elgin,88.54,95.25,74.84,86.18,256.28,Unlimited,SBD,F,
Girls,90.04,12,Zehcora Rochez,Taylor,83.23,86.18,36.29,86.18,208.65,Unlimited,SBD,F,
Girls,90.04,DQ,Valeria Mondragon,Manor,88.86,136.08,81.65,,,Unlimited,SBD,F,
Girls,100.02,1,Jolina Toala,Copperas Cove,98.07,179.17,88.45,172.37,439.98,Unlimited,SBD,F,
Girls,100.02,2,JaLiyah Price,Elgin,97.25,142.88,102.06,142.88,387.82,Unlimited,SBD,F,
Girls,100.02,3,Eunice Ramos,Bastrop Cedar Creek,91.35,142.88,65.77,142.88,351.53,Unlimited,SBD,F,
Girls,100.02,4,Maya Moctezuma,Pflugerville Connally,91.13,142.88,70.31,120.2,333.39,Unlimited,SBD,F,
Girls,100.02,5,Nataly Aviles-Cordova,Pflugerville Connally,92.17,115.67,58.97,120.2,294.84,Unlimited,SBD,F,
Girls,100.02,6,Trinity Roberson,Thrall,90.67,106.59,63.5,120.2,290.3,Unlimited,SBD,F,
Girls,100.02,7,Joanna Barar,Pflugerville Connally,95.71,102.06,68.04,88.45,258.55,Unlimited,SBD,F,
Girls,100.02,8,Angela Caldera,Bastrop,92.08,72.57,31.75,83.91,188.24,Unlimited,SBD,F,
Girls,110,1,Krista Randig,Taylor,103.96,161.03,102.06,154.22,417.3,Unlimited,SBD,F,
Girls,110,2,Nathalie Clay,Copperas Cove,101.02,151.95,88.45,149.69,390.09,Unlimited,SBD,F,
Girls,110,3,Vivica Paulhill,Bryan,105.28,154.22,68.04,142.88,365.14,Unlimited,SBD,F,
Girls,110,4,J Miracle Sandle,College Station,100.2,136.08,90.72,117.93,344.73,Unlimited,SBD,F,
Girls,110,5,Alondra Gutierrez,Del Valle,101.06,120.2,72.57,117.93,310.71,Unlimited,SBD,F,
Girls,110,6,Liliana Riojas,Del Valle,100.2,113.4,54.43,102.06,269.89,Unlimited,SBD,F,
Girls,110,7,Chloe Adams,Bastrop Cedar Creek,102.6,102.06,58.97,102.06,263.08,Unlimited,SBD,F,
Girls,110,DQ,Anya Gordon,Pflugerville Connally,101.38,,,,,Unlimited,SBD,F,
Girls,110+,1,Nya Kirk Jones,Elgin,112.04,226.8,149.69,199.58,576.06,Unlimited,SBD,F,
Girls,110+,2,Adriana Garcia,Giddings,133.9,195.04,120.2,170.1,485.34,Unlimited,SBD,F,
Girls,110+,3,Ariana Ramirez,Giddings,117.34,204.12,111.13,145.15,460.4,Unlimited,SBD,F,
Girls,110+,4,Addison Davis,Giddings,139.66,181.44,106.59,124.74,412.77,Unlimited,SBD,F,
Girls,110+,5,Cora Leon,Thrall,147.83,163.29,92.99,149.69,405.97,Unlimited,SBD,F,
Girls,110+,6,Keira Blue,Giddings,118.21,154.22,99.79,136.08,390.09,Unlimited,SBD,F,
Girls,110+,7,Breanna Ihrig,College Station,114.26,142.88,79.38,149.69,371.95,Unlimited,SBD,F,
Girls,110+,8,Cece Sandoval,Thorndale,116.26,142.88,83.91,142.88,369.68,Unlimited,SBD,F,
Girls,110+,9,Angela Garcia,Giddings,115.44,147.42,83.91,113.4,344.73,Unlimited,SBD,F,
Girls,110+,10,Camiesha Moore,Smithville,120.16,120.2,63.5,142.88,326.59,Unlimited,SBD,F,
Girls,110+,11,Regan McFarlin,Elgin,125.19,104.33,65.77,106.59,276.69,Unlimited,SBD,F,
Girls,110+,12,Betsy Herrera,Bastrop,119.75,111.13,58.97,97.52,267.62,Unlimited,SBD,F,
Girls,110+,DQ,Ashley Mucino,Manor,132.18,156.49,,,,Unlimited,SBD,F,
