Division,WeightClassKg,Place,Name,Team,BodyweightKg,Best3SquatKg,Best3BenchKg,Best3DeadliftKg,TotalKg,Equipment,Event,Sex,BirthDate
Boys,51.71,1,Leonardo Sauceda,Edinburg Economedes,50.94,163.29,102.06,154.22,419.57,Unlimited,SBD,M,
Boys,51.71,2,Josh Velasquez,Donna,51.3,133.81,79.38,131.54,344.73,Unlimited,SBD,M,
Boys,51.71,DQ,Dereck Liga,Edinburg Economedes,48.72,127.01,,,,Unlimited,SBD,M,
Boys,55.79,1,Ethan Hernandez,Harlingen South,55.34,213.19,145.15,190.51,548.85,Unlimited,SBD,M,
Boys,55.79,2,Douglas Armstrong,Donna,55.57,179.17,104.33,210.92,494.42,Unlimited,SBD,M,
Boys,55.79,3,Julian Betancourt,Lyford,55.79,179.17,111.13,179.17,469.47,Unlimited,SBD,M,
Boys,55.79,4,Gael Espino,Edinburg,54.98,149.69,88.45,170.1,408.23,Unlimited,SBD,M,
Boys,55.79,5,Angel Ecsandon,Edinburg,53.16,136.08,86.18,163.29,385.55,Unlimited,SBD,M,
Boys,55.79,DQ,Deondre Moody,Donna North,55.66,,,,,Unlimited,SBD,M,
Boys,59.87,1,Justin Flores,Edcouch-Elsa,59.83,183.7,102.06,192.78,478.54,Unlimited,SBD,M,
Boys,59.87,2,Jonathan Vasquez,Edinburg,59.87,176.9,104.33,156.49,437.72,Unlimited,SBD,M,
Boys,59.87,DQ,Jayden Rodríguez #1,Donna,56.34,167.83,102.06,,,Unlimited,SBD,M,
Boys,67.13,1,Ethan Moreno,Lyford,66.77,235.87,174.63,254.01,664.51,Unlimited,SBD,M,
Boys,67.13,2,Rick De Luna,Lyford,66.72,226.8,156.49,215.46,598.74,Unlimited,SBD,M,
Boys,67.13,3,Henry Anderson,Lyford,67.13,238.14,138.35,213.19,589.67,Unlimited,SBD,M,
Boys,67.13,4,Joaquin Castaneda,Edinburg Economedes,66.72,213.19,129.27,226.8,569.26,Unlimited,SBD,M,
Boys,67.13,5,Esmael Rodriguez,Edcouch-Elsa,66.77,222.26,122.47,204.12,548.85,Unlimited,SBD,M,
Boys,67.13,6,Erik Mata,Harlingen South,66.27,188.24,127.01,183.7,498.95,Unlimited,SBD,M,
Boys,67.13,7,Jaime Manriquez,Harlingen,67,172.37,120.2,172.37,464.93,Unlimited,SBD,M,
Boys,67.13,8,Elias Mayorga,Mission Veterans Memorial,67.04,183.7,99.79,163.29,446.79,Unlimited,SBD,M,
Boys,67.13,DQ,Trystan Rojas,Edcouch-Elsa,66,,,,,Unlimited,SBD,M,
Boys,67.13,DQ,Maddox Gonzalez,Edinburg Economedes,66.81,170.1,,,,Unlimited,SBD,M,
Boys,74.84,1,Isaac Estrada,Edcouch-Elsa,74.84,265.35,142.88,231.33,639.57,Unlimited,SBD,M,
Boys,74.84,2,John Torres,Edcouch-Elsa,74.62,251.74,138.35,231.33,621.42,Unlimited,SBD,M,
Boys,74.84,3,Jose Salgado,Harlingen,73.53,226.8,145.15,226.8,598.74,Unlimited,SBD,M,
Boys,74.84,4,Izzik Alonzo,Donna,74.84,215.46,147.42,219.99,582.87,Unlimited,SBD,M,
Boys,74.84,5,Alex Martinez,Harlingen South,71.8,226.8,122.47,183.7,532.97,Unlimited,SBD,M,
Boys,74.84,6,Julisses Garza,Harlingen,73.35,195.04,138.35,195.04,528.44,Unlimited,SBD,M,
Boys,74.84,7,Marcus Colunga,Donna North,70.17,195.04,102.06,215.46,512.56,Unlimited,SBD,M,
Boys,74.84,8,Jesus Cepeda,Donna North,74.8,122.47,104.33,124.74,351.53,Unlimited,SBD,M,
Boys,74.84,DQ,Jonathan Hernandez,Edinburg Economedes,69.35,,,,,Unlimited,SBD,M,
Boys,82.1,1,Jaime Trevino,Harlingen,80.92,256.28,174.63,224.53,655.44,Unlimited,SBD,M,
Boys,82.1,2,Lorenzo Rocha,Donna,80.15,240.4,142.88,229.06,612.35,Unlimited,SBD,M,
Boys,82.1,3,Mikey Gonzalez,Harlingen South,81.47,242.67,142.88,226.8,612.35,Unlimited,SBD,M,
Boys,82.1,4,Aiden Rubalcaba,Lyford,79.51,249.48,133.81,215.46,598.74,Unlimited,SBD,M,
Boys,82.1,5,Albert Gamez,Edinburg,81.87,213.19,149.69,206.38,569.26,Unlimited,SBD,M,
Boys,82.1,6,Mario Martinez,Edcouch-Elsa,81.96,233.6,115.67,208.65,557.92,Unlimited,SBD,M,
Boys,82.1,7,Julian Silva,Donna,80.42,195.04,120.2,204.12,519.36,Unlimited,SBD,M,
Boys,82.1,8,Romero Agueros,Mission Veterans Memorial,77.02,183.7,111.13,199.58,494.42,Unlimited,SBD,M,
Boys,82.1,9,Emmanuel Vargas,Lyford,75.57,204.12,108.86,158.76,471.74,Unlimited,SBD,M,
Boys,82.1,10,Drake Hernandez,Edinburg,78.79,158.76,117.93,167.83,444.52,Unlimited,SBD,M,
Boys,82.1,11,Ignacio Medina,Donna North,80.24,170.1,90.72,170.1,430.91,Unlimited,SBD,M,
Boys,82.1,12,Jonathan Casas,IDEA Elsa,78.06,124.74,86.18,147.42,358.34,Unlimited,SBD,M,
Boys,82.1,DQ,Fernando Morales,Edinburg Economedes,80.15,,,,,Unlimited,SBD,M,
Boys,82.1,DQ,Joel Cortez,Harlingen,82.1,231.33,147.42,,,Unlimited,SBD,M,
Boys,82.1,DQ,Jayson Navarro,Mission Veterans Memorial,77.25,183.7,127.01,,,Unlimited,SBD,M,
Boys,89.81,1,Tomas Longoria,Harlingen South,89.58,260.82,174.63,238.14,673.58,Unlimited,SBD,M,
Boys,89.81,2,Sterling Tomlin,Harlingen,88.68,265.35,183.7,217.72,666.78,Unlimited,SBD,M,
Boys,89.81,3,Seth Hernandez,Edinburg,89.4,260.82,170.1,222.26,653.17,Unlimited,SBD,M,
Boys,89.81,4,Tomás Muñoz,Edcouch-Elsa,89.45,244.94,172.37,229.06,646.37,Unlimited,SBD,M,
Boys,89.81,5,John Hernandez,Donna,88.5,222.26,131.54,226.8,580.6,Unlimited,SBD,M,
Boys,89.81,DQ,Francisco Marichalar,Edinburg Economedes,88.72,290.3,,,,Unlimited,SBD,M,
Boys,89.81,DQ,Adriain Lizcano,Harlingen,86,263.08,,,,Unlimited,SBD,M,
Boys,89.81,DQ,Marcus Garza,Harlingen South,89.27,217.72,120.2,,,Unlimited,SBD,M,
Boys,99.79,1,Jonathan Cerda,Raymondville,90.72,274.42,183.7,272.16,730.28,Unlimited,SBD,M,
Boys,99.79,2,Christian Torres,Raymondville,98.11,283.5,151.95,242.67,678.12,Unlimited,SBD,M,
Boys,99.79,3,Jacob Ortiz,Harlingen,99.38,249.48,192.78,235.87,678.12,Unlimited,SBD,M,
Boys,99.79,4,Alex Castro,Lyford,98.43,260.82,154.22,238.14,653.17,Unlimited,SBD,M,
Boys,99.79,5,Homero Tovar,Raymondville,93.62,256.28,133.81,254.01,644.1,Unlimited,SBD,M,
Boys,99.79,6,Montalvo Ramon,Harlingen South,94.3,254.01,138.35,217.72,610.08,Unlimited,SBD,M,
Boys,99.79,7,Javier Garcia,Donna North,99.79,238.14,149.69,217.72,605.55,Unlimited,SBD,M,
Boys,99.79,8,Gerardo Sanchez,Harlingen,92.58,215.46,154.22,219.99,589.67,Unlimited,SBD,M,
Boys,99.79,9,Ryan Ortiz,Harlingen,98.02,240.4,113.4,226.8,580.6,Unlimited,SBD,M,
Boys,99.79,10,Alex Tijerina,Lyford,90.72,210.92,131.54,215.46,557.92,Unlimited,SBD,M,
Boys,99.79,DQ,Anthony Lerma,Harlingen South,98.47,176.9,,,,Unlimited,SBD,M,
Boys,109.77,1,Randi Pedraza,Raymondville,104.69,365.14,192.78,288.03,845.95,Unlimited,SBD,M,
Boys,109.77,2,Gilbert Lerma,Harlingen South,100.24,310.71,190.51,258.55,759.77,Unlimited,SBD,M,
Boys,109.77,3,Justin Torres,Edinburg,106.41,231.33,142.88,195.04,569.26,Unlimited,SBD,M,
Boys,109.77,4,Diego Galvan,Edinburg Economedes,109.72,208.65,147.42,208.65,564.72,Unlimited,SBD,M,
Boys,109.77,5,Jesse Perez,Lyford,101.92,238.14,124.74,199.58,562.45,Unlimited,SBD,M,
Boys,109.77,6,Isaiah Cano,IDEA Elsa,105.41,140.61,86.18,151.95,378.75,Unlimited,SBD,M,
Boys,109.77,DQ,Daniel Rodriguez,Harlingen,109.63,,,,,Unlimited,SBD,M,
Boys,124.74,1,Anthony De Leon,Harlingen,119.93,317.51,215.46,238.14,771.11,Unlimited,SBD,M,
Boys,124.74,2,Ezra Echavarria,Harlingen South,111.4,288.03,185.97,242.67,716.68,Unlimited,SBD,M,
Boys,124.74,3,Arturo Gonzalez,Edcouch-Elsa,117.84,283.5,165.56,244.94,694,Unlimited,SBD,M,
Boys,124.74,4,Juan Meza,Donna,124.74,269.89,174.63,238.14,682.66,Unlimited,SBD,M,
Boys,124.74,5,Alex Ortiz,Edcouch-Elsa,120.02,272.16,176.9,226.8,675.85,Unlimited,SBD,M,
Boys,124.74,6,Esteban Damian,Edinburg,116.21,249.48,170.1,249.48,669.05,Unlimited,SBD,M,
Boys,124.74,7,Isaiah Hinajosa,Harlingen South,115.76,258.55,174.63,222.26,655.44,Unlimited,SBD,M,
Boys,124.74,8,Adan Espino,Donna,119.34,254.01,136.08,201.85,591.94,Unlimited,SBD,M,
Boys,124.74,9,Jake Gonzalez,Lyford,114.85,226.8,127.01,235.87,589.67,Unlimited,SBD,M,
Boys,124.74,10,Jaime Vela,Lyford,116.03,247.21,142.88,192.78,582.87,Unlimited,SBD,M,
Boys,124.74,11,Roman Palomo,Edinburg,113.08,233.6,136.08,204.12,573.79,Unlimited,SBD,M,
Boys,124.74,12,Rupert Lopez,Edinburg,119.88,224.53,136.08,192.78,553.38,Unlimited,SBD,M,
Boys,124.74,13,Rey Ortega,Donna North,116.39,183.7,102.06,181.44,467.2,Unlimited,SBD,M,
Boys,124.74,14,Ayden Alfaro,Raymondville,111.99,142.88,111.13,147.42,401.43,Unlimited,SBD,M,
Boys,124.74,DQ,Ryan Luna,Harlingen South,111.54,265.35,,,,Unlimited,SBD,M,
Boys,139.71,1,Isaiah Loya,Donna North,137.48,356.07,204.12,231.33,791.52,Unlimited,SBD,M,
Boys,139.71,2,Gus De La Cerda,Donna,131.09,324.32,190.51,263.08,777.91,Unlimited,SBD,M,
Boys,139.71,3,Saul Luna,Edcouch-Elsa,132.09,240.4,136.08,188.24,564.72,Unlimited,SBD,M,
Boys,139.71,4,Jose Quintero,Raymondville,126.6,142.88,65.77,142.88,351.53,Unlimited,SBD,M,
Boys,139.71+,1,Anthony Johnson,Harlingen,142.29,317.51,226.8,249.48,793.79,Unlimited,SBD,M,
Boys,139.71+,2,Damian Trejo,Lyford,161.93,260.82,117.93,231.33,610.08,Unlimited,SBD,M,
Boys,139.71+,3,Caleb Trevino,Harlingen South,144.79,210.92,142.88,158.76,512.56,Unlimited,SBD,M,
Boys,139.71+,4,Jan Mireles,Donna North,168.24,161.03,102.06,163.29,426.38,Unlimited,SBD,M,
Boys,,NS,Ramiro Cardoza,Edcouch-Elsa,,,,,,Unlimited,SBD,M,
Boys,,NS,Humberto Leal,Donna,,,,,,Unlimited,SBD,M,
Boys,,NS,Christian Galvan,Raymondville,,,,,,Unlimited,SBD,M,
Boys,,NS,Mathew Jimenez,Raymondville,,,,,,Unlimited,SBD,M,
Boys,,NS,Jaime Vargas,Raymondville,,,,,,Unlimited,SBD,M,
Boys,,NS,Joemiles Salazar,Raymondville,,,,,,Unlimited,SBD,M,
Boys,,NS,Jason Ramirez,IDEA Elsa,,,,,,Unlimited,SBD,M,
Boys,,NS,Bengino Garica,Donna,,,,,,Unlimited,SBD,M,
Boys,,NS,Mark Hernandez,Edcouch-Elsa,,,,,,Unlimited,SBD,M,
Boys,,NS,Orvelin Nunez,Edinburg Economedes,,,,,,Unlimited,SBD,M,
Boys,,NS,Ruben Abundis,Edinburg Economedes,,,,,,Unlimited,SBD,M,
Boys,,NS,Ismael Garcia,Edinburg Economedes,,,,,,Unlimited,SBD,M,
Boys,,NS,Felipe Balderas,Edinburg Economedes,,,,,,Unlimited,SBD,M,
Boys,,NS,Edgar Garcia,Harlingen,,,,,,Unlimited,SBD,M,
Boys,,NS,Devin Lerma,Mission Veterans Memorial,,,,,,Unlimited,SBD,M,
Boys,,NS,Marcus Desiga,Mission Veterans Memorial,,,,,,Unlimited,SBD,M,
Boys,,NS,Anthony Azua,Mission Veterans Memorial,,,,,,Unlimited,SBD,M,
Boys,,NS,Reno Villanueva,Harlingen South,,,,,,Unlimited,SBD,M,
Boys,,NS,Andrew Arecher,Edinburg,,,,,,Unlimited,SBD,M,
Boys,,NS,Cristian Salinas,Edinburg,,,,,,Unlimited,SBD,M,
