Division,WeightClassKg,Place,Name,Team,BodyweightKg,Best3SquatKg,Best3BenchKg,Best3DeadliftKg,TotalKg,Equipment,Event,Sex,BirthDate
Boys,51.71,1,Dawson Gilmore,Hamshire-Fannett,50.8,74.84,52.16,74.84,201.85,Unlimited,SBD,M,
Boys,59.87,1,Jaden Thibodeaux,Winnie East Chambers,59.87,204.12,138.35,190.51,532.97,Unlimited,SBD,M,
Boys,59.87,2,Jacob Lopez,Beaumont West Brook,58.97,158.76,106.59,145.15,410.5,Unlimited,SBD,M,
Boys,59.87,3,Alex Hidalgo,Hamshire-Fannett,59.51,115.67,83.91,106.59,306.17,Unlimited,SBD,M,
Boys,67.13,1,Andrew Phillips,Beaumont West Brook,66.22,204.12,127.01,172.37,503.49,Unlimited,SBD,M,
Boys,67.13,2,Tatum Brasseaux,Winnie East Chambers,64.18,192.78,120.2,161.03,474,Unlimited,SBD,M,
Boys,67.13,3,Ladainian Jefferson,Winnie East Chambers,66,165.56,102.06,165.56,433.18,Unlimited,SBD,M,
Boys,67.13,4,Travis Thompson,Hamshire-Fannett,60.42,151.95,74.84,138.35,365.14,Unlimited,SBD,M,
Boys,67.13,5,Andrew Bergeron,Hamshire-Fannett,63.59,151.95,72.57,113.4,337.93,Unlimited,SBD,M,
Boys,67.13,6,Jesse Moore,Winnie East Chambers,62.14,113.4,70.31,145.15,328.85,Unlimited,SBD,M,
Boys,74.84,1,David Dinh,Beaumont West Brook,74.39,231.33,113.4,244.94,589.67,Unlimited,SBD,M,
Boys,74.84,2,Brendan Hall,Hamshire-Fannett,70.44,156.49,95.25,158.76,410.5,Unlimited,SBD,M,
Boys,74.84,3,Cannon Martin,Hamshire-Fannett,70.35,167.83,74.84,151.95,394.63,Unlimited,SBD,M,
Boys,82.1,1,Eliceo Martinez,Winnie East Chambers,81.92,231.33,147.42,188.24,566.99,Unlimited,SBD,M,
Boys,82.1,2,Sean Beighley,Winnie East Chambers,82.1,190.51,104.33,174.63,469.47,Unlimited,SBD,M,
Boys,82.1,3,Jason Janak,Winnie East Chambers,79.38,158.76,102.06,161.03,421.84,Unlimited,SBD,M,
Boys,82.1,4,Patrick Stetz,Hamshire-Fannett,77.25,147.42,113.4,136.08,396.89,Unlimited,SBD,M,
Boys,82.1,5,Donovan Chaney,Beaumont West Brook,79.38,154.22,70.31,172.37,396.89,Unlimited,SBD,M,
Boys,89.81,1,Isaiah Junior,Beaumont West Brook,88.9,215.46,129.27,201.85,546.58,Unlimited,SBD,M,
Boys,89.81,2,Ryland Begnaud,Hamshire-Fannett,87.27,185.97,113.4,197.31,496.68,Unlimited,SBD,M,
Boys,89.81,3,David Harper,Beaumont West Brook,89.81,170.1,115.67,147.42,433.18,Unlimited,SBD,M,
Boys,89.81,4,Tyrus Bordelon,Winnie East Chambers,87.09,165.56,95.25,147.42,408.23,Unlimited,SBD,M,
Boys,99.79,1,Josue Garcia,Winnie East Chambers,90.72,226.8,106.59,199.58,532.97,Unlimited,SBD,M,
Boys,99.79,2,Mario Negrete,Winnie East Chambers,90.26,201.85,124.74,195.04,521.63,Unlimited,SBD,M,
Boys,99.79,3,Micheal Jannise,Beaumont West Brook,90.72,192.78,136.08,158.76,487.61,Unlimited,SBD,M,
Boys,99.79,4,Lane Jones,Winnie East Chambers,95.48,170.1,102.06,170.1,442.25,Unlimited,SBD,M,
Boys,109.77,1,Elijae Oliver,Beaumont West Brook,109.77,197.31,127.01,224.53,548.85,Unlimited,SBD,M,
Boys,109.77,2,Traydell Roane,Beaumont West Brook,108.86,235.87,117.93,181.44,535.24,Unlimited,SBD,M,
Boys,124.74,1,Andre Carter,Beaumont West Brook,122.47,192.78,154.22,185.97,532.97,Unlimited,SBD,M,
Boys,124.74,DQ,Ej Guillory,Winnie East Chambers,124.51,190.51,127.01,,,Unlimited,SBD,M,
Boys,139.71,1,Brady Werner,Hamshire-Fannett,129.27,272.16,117.93,213.19,603.28,Unlimited,SBD,M,
Boys,139.71,DQ,Jayden Decquire,Beaumont West Brook,133.36,,,,,Unlimited,SBD,M,
Boys,139.71+,1,Kevin Jackson,Beaumont West Brook,158.76,242.67,127.01,231.33,601.01,Unlimited,SBD,M,
Boys,139.71+,2,Derrick Turner,Beaumont West Brook,151.95,163.29,124.74,142.88,430.91,Unlimited,SBD,M,
