Name,Sex,BirthDate,Division,WeightClassKg,BodyweightKg,Squat1Kg,Squat2Kg,Squat3Kg,Best3SquatKg,Bench1Kg,Bench2Kg,Bench3Kg,Best3BenchKg,Deadlift1Kg,Deadlift2Kg,Deadlift3Kg,Best3DeadliftKg,TotalKg,Place,Event,Equipment
Theodora Louvari,F,,Sub-Junior,47,44.4,30,40,42.5,42.5,20,,,20,50,60,70,70,132.5,1,SBD,Raw
Foteini Louvari,F,,Sub-Junior,63,62.5,90,-100,-100,90,40,42.5,,42.5,100,-102.5,,100,232.5,1,SBD,Raw
Efrosyni Maria Gkadolou,F,,Sub-Junior,76,69.78,132.5,137.5,145,145,65,70,-72.5,70,142.5,147.5,152.5,152.5,367.5,1,SBD,Raw
Athina Dravalopoulou,F,,Junior,57,57,60,70,80,80,50,55,-57.5,55,100,110,120,120,255,1,SBD,Raw
Margarita Ntinou,F,,Junior,57,54.97,90,95,-100,95,-47.5,47.5,50,50,-95,-95,95,95,240,2,SBD,Raw
Andriana Antoniou,F,,Junior,57,55.29,70,-72.5,80,80,35,40,-45,40,90,100,110,110,230,3,SBD,Raw
Mariella Drakaki,F,,Junior,63,60.93,125,130,-135,130,72.5,75,77.5,77.5,130,135,-137.5,135,342.5,1,SBD,Raw
Pinelopi Spyropoulou,F,,Junior,63,62,117.5,-120,-120,117.5,60,62.5,-65,62.5,140,145,150,150,330,2,SBD,Raw
Bagia Mastora,F,,Junior,63,61.82,77.5,85,-90,85,-37.5,37.5,-42.5,37.5,85,100,-110,100,222.5,3,SBD,Raw
Danai Mpartsi,F,,Junior,63,59.93,70,75,80,80,42.5,45,-47.5,45,90,-97.5,-97.5,90,215,4,SBD,Raw
Aliki Mpakatselou,F,,Junior,69,65.81,130,135,142.5,142.5,60,65,67.5,67.5,140,150,160,160,370,1,SBD,Raw
Mauretta Ktena,F,,Junior,69,64.57,85,90,95,95,50,-52.5,52.5,52.5,105,112.5,-117.5,112.5,260,2,SBD,Raw
Maria Anna Aggelopoulou,F,,Junior,69,66.5,95,97.5,102.5,102.5,-47.5,-50,-50,,125,130,-135,130,,DQ,SBD,Raw
Eirini Fragkaki,F,,Junior,76,74.45,-105,105,-110,105,70,75,80,80,115,125,137.5,137.5,322.5,1,SBD,Raw
Eleutheria Argyraki,F,,Junior,84+,130.94,110,120,-130,120,35,-45,-60,35,120,-130,-135,120,275,1,SBD,Raw
Vasiliki Yfanti-Toli,F,,Open,52,50.77,65,-75,-80,65,40,45,47.5,47.5,100,120,125,125,237.5,1,SBD,Raw
Aliki Antonopoulou,F,,Open,52,51.13,67.5,-72.5,72.5,72.5,35,37.5,-40,37.5,90,95,-97.5,95,205,2,SBD,Raw
Theodora Karapanagioti,F,,Open,63,61.16,-102.5,107.5,117.5,117.5,57.5,60,65,65,127.5,137.5,-140,137.5,320,1,SBD,Raw
Melina Katri,F,,Open,63,61.63,105,110,-117.5,110,57.5,-60,-60,57.5,130,-145,-145,130,297.5,2,SBD,Raw
Dimitra Samikou,F,,Open,63,57.45,135,142.5,150,150,70,75,80,80,-180,-180,-180,,,DQ,SBD,Raw
Christina Siavala,F,,Open,69,66.77,105,-112.5,-112.5,105,55,60,62.5,62.5,100,107.5,112.5,112.5,280,1,SBD,Raw
Maria Machalia,F,,Open,76,74.9,105,112.5,120,120,47.5,-52.5,52.5,52.5,-125,125,140,140,312.5,1,SBD,Raw
Panagiota Ntoridou,F,,Masters 1,57,56.25,-70,75,80,80,35,-40,-42.5,35,92.5,100,107.5,107.5,222.5,1,SBD,Raw
Stefanos Georgiou,M,,Sub-Junior,66,63.09,-130,-130,130,130,-95,95,-100,95,190,200,-210,200,425,1,SBD,Raw
Vasileios Petras,M,,Sub-Junior,66,61.95,120,130,135,135,100,110,-120,110,155,170,-180,170,415,2,SBD,Raw
Konstantinos Papamargaritis,M,,Sub-Junior,66,65.43,135,142.5,-145,142.5,95,102.5,107.5,107.5,152.5,-162.5,-162.5,152.5,402.5,3,SBD,Raw
Filippos Karanikas,M,,Sub-Junior,66,62.73,117.5,125,130,130,80,-85,-85,80,160,170,-175,170,380,4,SBD,Raw
Thomas Katotikidis,M,,Sub-Junior,74,70.9,-180,182.5,-200,182.5,120,130,-135,130,220,240,-250,240,552.5,1,SBD,Raw
Fotios Alexopoulos,M,,Sub-Junior,74,67.85,157.5,167.5,172.5,172.5,105,110,-111.5,110,165,175,-180,175,457.5,2,SBD,Raw
Spyridon Parianos,M,,Sub-Junior,74,69.8,140,147.5,152.5,152.5,85,92.5,-95,92.5,175,187.5,200,200,445,3,SBD,Raw
Athanasios Kotsifkas,M,,Sub-Junior,74,69.45,150,-157.5,-162.5,150,-92.5,95,100,100,175,185,-195,185,435,4,SBD,Raw
Fampian Gkintiai,M,,Sub-Junior,74,69.5,117.5,125,130,130,75,-82.5,-82.5,75,165,172.5,-180,172.5,377.5,5,SBD,Raw
Nikolaos Karras,M,,Sub-Junior,83,82.75,202.5,210,220,220,140,147.5,-153.5,147.5,237.5,252.5,260,260,627.5,1,SBD,Raw
Mixail Salloumis,M,,Sub-Junior,83,80.68,200,-212.5,220,220,105,115,122.5,122.5,-255,255,272.5,272.5,615,2,SBD,Raw
Konstantinos Damigos,M,,Sub-Junior,83,79.15,197.5,207.5,-210,207.5,-112.5,115,-122.5,115,195,210,222.5,222.5,545,3,SBD,Raw
Savvas Tzamtzis,M,,Sub-Junior,83,82.42,165,170,180,180,117.5,120,122.5,122.5,215,225,-245,225,527.5,4,SBD,Raw
Georgios Paraskeuopoulos,M,,Sub-Junior,83,81.6,150,170,-190,170,95,105,-110,105,200,220,-230,220,495,5,SBD,Raw
Stavros Georgakakis,M,,Sub-Junior,83,78.1,-140,140,160,160,100,107.5,115,115,190,200,205,205,480,6,SBD,Raw
Omar Mohamed,M,,Sub-Junior,93,90.12,187.5,202.5,207.5,207.5,112.5,117.5,-122.5,117.5,225,245,250,250,575,1,SBD,Raw
Theodoros Euaggelou,M,,Sub-Junior,93,92,-180,185,190,190,125,132.5,137.5,137.5,195,210,220,220,547.5,2,SBD,Raw
Marios Aggelopoulos,M,,Sub-Junior,93,89.95,-165,170,175,175,-110,-115,115,115,180,200,215,215,505,3,SBD,Raw
Marios Rokkakis,M,,Sub-Junior,93,90.36,-155,155,-165,155,102.5,110,-120,110,185,197.5,205,205,470,4,SBD,Raw
Dimitrios Kagkaropoulos,M,,Sub-Junior,93,83.89,150,157.5,-167.5,157.5,-92.5,-97.5,97.5,97.5,160,170,-180,170,425,5,SBD,Raw
Savvas Savvidis,M,,Sub-Junior,105,102,130,-135,-137.5,130,62.5,67.5,-72.5,67.5,155,170,-185,170,367.5,1,SBD,Raw
Odysseas Markou,M,,Sub-Junior,120+,131.17,235,245,257.5,257.5,145,157.5,162.5,162.5,255,270,-285,270,690,1,SBD,Raw
Basilios Karakatsanis,M,,Junior,53,52.57,130,145,155,155,120,130,-135,130,130,140,150,150,435,1,SBD,Raw
Marios Liatsis,M,,Junior,66,65.5,207.5,220,-225,220,125,-127.5,-127.5,125,225,245,-255,245,590,1,SBD,Raw
Dionysios Skoularikis,M,2004-06-22,Junior,66,63.7,145,162.5,-165,162.5,95,102.5,105,105,192.5,207.5,210,210,477.5,2,SBD,Raw
Nikolaos Loukas,M,,Junior,66,64.54,135,142.5,-147.5,142.5,85,-90,-90,85,145,152.5,160,160,387.5,3,SBD,Raw
Konstantinos Dimitriou,M,,Junior,74,70.1,195,207.5,215,215,127.5,132.5,137.5,137.5,252.5,266,275,275,627.5,1,SBD,Raw
Mixail Aggelos Xristoforou,M,,Junior,74,70.23,182.5,192.5,200,200,107.5,117.5,-122.5,117.5,260,273.5,-281,273.5,591,2,SBD,Raw
Isidoros Aleksandros Felesakis,M,,Junior,74,73.6,180,-187.5,187.5,187.5,120,127.5,-132.5,127.5,235,242.5,-247.5,242.5,557.5,3,SBD,Raw
Andreas Vasilakis,M,,Junior,74,73.2,170,182.5,187.5,187.5,125,-130,-130,125,185,200,210,210,522.5,4,SBD,Raw
Eleftherios Batsithianos,M,,Junior,74,73.43,-200,200,221,221,110,120,-130,120,160,170,180,180,521,5,SBD,Raw
Georgios Markos Giannakos,M,,Junior,74,69.86,160,170,177.5,177.5,110,117.5,122.5,122.5,190,205,-220,205,505,6,SBD,Raw
Xousein Katirtzi,M,,Junior,74,73.13,175,177.5,-192.5,177.5,-105,105,-110,105,195,210,215,215,497.5,7,SBD,Raw
Nikolaos Xristoforidis,M,,Junior,74,70.94,140,147.5,150,150,-105,112.5,120,120,205,-225,225,225,495,8,SBD,Raw
Xaralampos Ragias,M,,Junior,74,70.9,-150,160,-170,160,115,120,-125,120,170,180,-200,180,460,9,SBD,Raw
Georgios Xristoforidis,M,,Junior,74,70.5,120,130,-140,130,100,-110,-110,100,170,180,190,190,420,10,SBD,Raw
Marios Mpousi,M,,Junior,74,68.1,110,120,-130,120,70,75,77.5,77.5,165,172.5,177.5,177.5,375,11,SBD,Raw
Dimitris Davazoglou,M,,Junior,83,82.3,250,265,270,270,177.5,185,192.5,192.5,260,270,275,275,737.5,1,SBD,Raw
Basileios Kylindris,M,,Junior,83,81.2,205,-207.5,225,225,150,-157.5,-157.5,150,230,235,-260,235,610,2,SBD,Raw
Stelios Panormitis Kaloudis Tsampikos,M,,Junior,83,82.84,220,230,-235,230,145,150,-155,150,220,230,-237.5,230,610,3,SBD,Raw
Konstantinos Konstantatos,M,,Junior,83,82,195,207.5,212.5,212.5,125,132.5,-135,132.5,220,235,250,250,595,4,SBD,Raw
Nikitas Kalaitzis,M,,Junior,83,79.72,190,-200,205,205,130,135,140,140,230,-242.5,-255,230,575,5,SBD,Raw
Konstantinos Manolidis,M,,Junior,83,82.7,-190,-190,195,195,120,130,-132.5,130,215,230,240,240,565,6,SBD,Raw
Kyriakos Dimitrelis,M,,Junior,83,82.1,180,-190,-190,180,110,-115,-115,110,257.5,-260,-275,257.5,547.5,7,SBD,Raw
Stavros Louvaris,M,,Junior,83,81.31,180,190,-197.5,190,130,-135,135,135,220,-230,,220,545,8,SBD,Raw
Apostolos Mermigkas,M,,Junior,83,79.67,177.5,190,-195,190,105,107.5,117.5,117.5,200,220,-235,220,527.5,9,SBD,Raw
Konstantinos Gkontoras,M,,Junior,83,82.07,170,185,195,195,105,117.5,-122.5,117.5,185,195,-205,195,507.5,10,SBD,Raw
Christos Karandreas,M,,Junior,83,79,-155,160,175,175,90,95,100,100,-195,205,220,220,495,11,SBD,Raw
Dimitrios Stamatopoulos,M,,Junior,83,80.82,162.5,175,-180,175,127.5,135,137.5,137.5,-160,160,,160,472.5,12,SBD,Raw
Ioannis Manelidis,M,,Junior,83,81.96,160,167.5,-172.5,167.5,-90,90,-100,90,190,200,-210,200,457.5,13,SBD,Raw
Vasileios Kotsalas,M,,Junior,83,80,100,,,100,140,150,-155,150,180,200,,200,450,14,SBD,Raw
Christos Parotsidis,M,,Junior,83,81.95,135,145,155,155,95,105,110,110,155,170,180,180,445,15,SBD,Raw
Euaggelos Mandanas,M,,Junior,83,78.85,130,-140,145,145,75,82.5,90,90,145,165,180,180,415,16,SBD,Raw
Basilis-Xerki Roko,M,,Junior,83,81.5,130,-140,-145,130,-85,85,-92.5,85,180,200,-220,200,415,17,SBD,Raw
Manthos Maravelias,M,,Junior,83,77.38,115,120,127.5,127.5,77.5,85,-87.5,85,-160,-187.5,-187.5,,,DQ,SBD,Raw
Georgios Foivos Lymperopoulos,M,,Junior,93,88.9,245,260,265,265,130,140,145,145,265,280,290,290,700,1,SBD,Raw
Aggelos Almouti,M,,Junior,93,90.5,230,240,250,250,142.5,150,,150,-255,265,275,275,675,2,SBD,Raw
Alex Retzepai,M,,Junior,93,90.2,205,-207.5,-220,205,-130,130,135,135,250,260,-270,260,600,3,SBD,Raw
Athanasios Melissidis,M,2004-05-29,Junior,93,91.5,182.5,192.5,200,200,125,-132.5,132.5,132.5,235,-250,250,250,582.5,4,SBD,Raw
Andreas Karesiou,M,,Junior,93,92.43,195,207.5,-220,207.5,-132.5,132.5,137.5,137.5,210,227.5,-240,227.5,572.5,5,SBD,Raw
Thanos Anastasiou,M,,Junior,93,90.55,192.5,202.5,-210,202.5,-110,115,117.5,117.5,200,220,235,235,555,6,SBD,Raw
Konstantinos Fragkias,M,,Junior,93,91.45,170,185,-200,185,110,-115,-115,110,235,250,-262.5,250,545,7,SBD,Raw
Basileios Ouzounis,M,,Junior,93,91.24,175,185,190,190,110,117.5,-120,117.5,215,230,-250,230,537.5,8,SBD,Raw
Basileios Kytinos,M,,Junior,93,91.5,185,-195,195,195,-122.5,122.5,-127.5,122.5,200,220,-230,220,537.5,9,SBD,Raw
Stelios Konstantinou,M,,Junior,93,90.65,-175,180,192.5,192.5,112.5,117.5,-120,117.5,210,225,-235,225,535,10,SBD,Raw
Konstantinos Gerogiannis,M,,Junior,93,92.61,-180,185,197.5,197.5,-115,115,-120,115,200,217.5,-230,217.5,530,11,SBD,Raw
Ioannis Karyotakis,M,,Junior,93,90.7,180,190,200,200,-140,-140,-140,,-210,210,225,225,,DQ,SBD,Raw
Panagiwtis Mpoldoglou,M,,Junior,105,104,245,261,,261,145,-150,150,150,250,260,-267.5,260,671,1,SBD,Raw
Konstantinos Eklektos,M,,Junior,105,101.2,220,227.5,235,235,150,155,-160,155,230,240,-245,240,630,2,SBD,Raw
Adamantios Lafazanis,M,,Junior,105,102.2,210,222.5,230,230,-120,125,-132.5,125,260,270,-280,270,625,3,SBD,Raw
Nikolaos Anastasios Raikidis,M,,Junior,105,101.6,200,210,217.5,217.5,130,135,137.5,137.5,235,250,-277.5,250,605,4,SBD,Raw
Spyridon Kourakos,M,,Junior,105,101,180,192.5,202.5,202.5,97.5,105,110,110,260,-275,-287.5,260,572.5,5,SBD,Raw
Eduart Sallo,M,,Junior,105,103.55,-200,200,207.5,207.5,-120,120,125,125,-215,222.5,232.5,232.5,565,6,SBD,Raw
Ilias Bekas,M,,Open,66,65.38,155,165,-175,165,95,100,-105,100,195,207.5,217.5,217.5,482.5,1,SBD,Raw
Ilias Papastamatis,M,,Open,66,65.09,-80,80,-90,80,80,-95,-95,80,110,120,-135,120,280,2,SBD,Raw
Theodoros Paulidis,M,,Open,74,73.5,200,222.5,227.5,227.5,120,130,135,135,215,220,-230,220,582.5,1,SBD,Raw
Konstantinos Markos,M,,Open,74,70.9,-185,187.5,-195,187.5,110,115,-120,115,200,215,220,220,522.5,2,SBD,Raw
Basileios Oktaras,M,,Open,74,73.6,-170,-170,170,170,92.5,100,-105,100,-220,240,-255,240,510,3,SBD,Raw
Ioannis Euthimiadis,M,,Open,74,71.4,-170,170,180,180,-112.5,112.5,-120,112.5,215,-225,-227.5,215,507.5,4,SBD,Raw
Ioannis Pieris,M,,Open,83,82.6,235,245,250,250,150,-160,-160,150,240,255,265,265,665,1,SBD,Raw
Ioannis Perisianidis,M,,Open,83,82.64,200,207.5,,207.5,127.5,135,-137.5,135,280,302.5,313.5,313.5,656,2,SBD,Raw
Alexandros Sakarikas,M,,Open,83,82.1,-210,210,-220,210,150,-157.5,157.5,157.5,270,282.5,-297.5,282.5,650,3,SBD,Raw
Evaggelos Tziavaras,M,,Open,83,80.58,187.5,197.5,202.5,202.5,140,150,-155,150,250,270,285,285,637.5,4,SBD,Raw
Aggelos Karonis,M,,Open,83,81.2,200,212.5,217.5,217.5,130,-140,-140,130,235,250,-262.5,250,597.5,5,SBD,Raw
Athanasios Sarafis,M,,Open,83,81.99,192.5,205,207.5,207.5,132.5,-140,-140,132.5,-222.5,222.5,-237.5,222.5,562.5,6,SBD,Raw
Chris Maris,M,,Open,83,82.99,190,195,-202.5,195,-115,120,-127.5,120,240,250,-260,250,565,7,SBD,Raw
Athanasios Yfantis,M,,Open,83,79.8,175,-177.5,185,185,110,115,-120,115,-225,250,-260,250,550,8,SBD,Raw
Nikolaos Bonitsanos,M,,Open,83,82.15,190,-202.5,-202.5,190,-150,150,-155,150,200,210,,210,550,9,SBD,Raw
Konstantinos Rekkas,M,,Open,83,82.6,200,210,217.5,217.5,110,115,-120,115,200,210,215,215,547.5,10,SBD,Raw
Panagiotis Kaxilelis,M,,Open,83,82.5,160,170,-180,170,135,-140,,135,190,200,210,210,515,11,SBD,Raw
Andreas Mpiskentzis,M,,Open,83,80.45,165,180,-182.5,180,100,110,-120,110,165,182.5,195,195,485,12,SBD,Raw
Georgios Skolarikis,M,,Open,83,81.7,150,160,165,165,90,95,-100,95,160,170,180,180,440,13,SBD,Raw
Michael Fotis,M,,Open,93,92.18,290,305,315,315,172.5,180,185,185,310,-325,330,330,830,1,SBD,Raw
Emmanouel Varveris,M,,Open,93,92.75,260,-262.5,270,270,160,167.5,-172.5,167.5,300,320,-327.5,320,757.5,2,SBD,Raw
Konstantinos Barounis,M,,Open,93,92.55,245,260,-265,260,145,152.5,-157.5,152.5,280,295,302.5,302.5,715,3,SBD,Raw
Ioannis Aristeidis Pappas,M,,Open,93,90.5,235,250,255,255,162.5,-170,-170,162.5,-260,270,295,295,712.5,4,SBD,Raw
Dimitris Papadimitriou,M,,Open,93,91.92,220,232.5,245,245,155,162.5,167.5,167.5,280,290,-295,290,702.5,5,SBD,Raw
Petros Zaranis,M,,Open,93,91.27,220,232.5,237.5,237.5,160,167.5,-172.5,167.5,235,247.5,260,260,665,6,SBD,Raw
Dimitrios Karaterpos,M,,Open,93,92.56,245,-255,-255,245,-147.5,-147.5,147.5,147.5,247.5,257.5,270,270,662.5,7,SBD,Raw
Georgios Spyropoulos,M,,Open,93,91.6,200,215,220,220,150,-155,155,155,-270,270,-282.5,270,645,8,SBD,Raw
Leonidas Ioannis Karagiannis,M,,Open,93,91.24,210,-220,220,220,120,-127.5,-132.5,120,225,240,250,250,590,9,SBD,Raw
Georgios Anagnostou,M,,Open,93,92.24,205,215,-222.5,215,127.5,132.5,135,135,225,235,-245,235,585,10,SBD,Raw
Savvas Savvas,M,,Open,93,91.69,180,190,200,200,132.5,140,145,145,210,225,237.5,237.5,582.5,11,SBD,Raw
Kyriakos Leventis,M,,Open,93,92.74,170,185,195,195,127.5,135,-140,135,235,247.5,-260,247.5,577.5,12,SBD,Raw
Antonios Tantis,M,,Open,93,88.3,187.5,195,200,200,120,127.5,-130,127.5,192.5,202.5,-210,202.5,530,13,SBD,Raw
Euaggelos Mixas,M,,Open,93,92.08,-170,175,-185,175,117.5,125,130,130,205,220,-230,220,525,14,SBD,Raw
Vasileios Ntampos,M,,Open,93,89.7,165,175,182.5,182.5,97.5,102.5,107.5,107.5,205,-212.5,215,215,505,15,SBD,Raw
Alexandros Mpalis,M,,Open,93,87.79,160,172.5,175,175,107.5,110,-115,110,190,200,-207.5,200,485,16,SBD,Raw
Xaralampos Stamatiou,M,,Open,93,90,147.5,157.5,165,165,95,102.5,-107.5,102.5,165,180,190,190,457.5,17,SBD,Raw
Eustathios Balasakis,M,,Open,93,88.17,155,167.5,-172.5,167.5,-92.5,95,100,100,-165,175,182.5,182.5,450,18,SBD,Raw
Nikolaos Kakaletris,M,,Open,105,102.9,275,290,-300,290,160,170,175,175,292.5,310,-315,310,775,1,SBD,Raw
Manolis Konidakis,M,,Open,105,103.5,242.5,255,-262.5,255,165,-170,172.5,172.5,265,275,282.5,282.5,710,2,SBD,Raw
Konstantinos Korkotzelos,M,,Open,105,100.1,240,255,262.5,262.5,-147.5,147.5,155,155,290,-307.5,-307.5,290,707.5,3,SBD,Raw
Andreas Assiotis,M,,Open,105,98.2,240,250,257.5,257.5,140,152.5,-160,152.5,280,292.5,-295,292.5,702.5,4,SBD,Raw
Dimitrios Koukobinos,M,,Open,105,102.96,210,222.5,-230,222.5,110,-120,-120,110,230,237.5,242.5,242.5,575,5,SBD,Raw
Athanasios Naltsoglou,M,,Open,105,101.5,190,205,210,210,135,142.5,,142.5,-210,210,-220,210,562.5,6,SBD,Raw
Konstantinos Ediaroglou,M,,Open,105,102.5,185,195,210,210,115,125,-135,125,195,207.5,217.5,217.5,552.5,7,SBD,Raw
Spyros Tzolis,M,,Open,105,99.5,160,170,180,180,125,-132.5,-135,125,170,185,-192.5,185,490,8,SBD,Raw
Anastasios Tersenidis,M,,Open,120,118.9,240,260,275,275,190,205,215,215,285,310,322.5,322.5,812.5,1,SBD,Raw
Alexandros Ioannis Drosos,M,,Open,120,118.31,265,275,285,285,175,185,190,190,300,-325,-325,300,775,2,SBD,Raw
Konstantinos Katsaridis,M,,Open,120,110.03,-180,192.5,200,200,-135,142.5,-147.5,142.5,220,240,-250,240,582.5,3,SBD,Raw
Athanasios Argyroudis,M,,Open,120,115.92,152.5,-157.5,-160,152.5,115,-120,-120,115,180,185,190,190,457.5,4,SBD,Raw
Konstantinos Papadoudis,M,,Open,120+,120.8,300,-320,-320,300,200,220,-230,220,-280,280,300,300,820,1,SBD,Raw
Nikolaos Sakellaris,M,,Open,120+,126.5,215,222.5,-235,222.5,170,180,185,185,260,267.5,272.5,272.5,680,2,SBD,Raw
Stamatis Karampogas,M,,Open,120+,126.9,240,247.5,255,255,150,157.5,-162.5,157.5,240,255,-270,255,667.5,3,SBD,Raw
Nikolaos Mpoulmpasakos,M,,Open,120+,156.85,230,-240,-240,230,165,180,185,185,-250,-250,-250,,,DQ,SBD,Raw
Christos Charatsis,M,,Masters 1,59,54.6,92.5,100,-105,100,55,60,-65,60,130,140,-145,140,300,1,SBD,Raw
Xristos Saltogiannis,M,,Masters 1,105,103.6,200,210,220,220,-130,135,140,140,250,260,-270,260,620,1,SBD,Raw
Basileios Epameinondou,M,,Masters 1,105,101.6,185,200,205,205,130,142.5,147.5,147.5,210,227.5,242.5,242.5,595,2,SBD,Raw
Aristeidis Katsoulidis,M,,Masters 1,105,103,-210,210,-220,210,140,145,-160,145,230,240,-250,240,595,3,SBD,Raw
Ioannis Xristodoulou,M,,Masters 1,120,115.9,240,260,272.5,272.5,130,140,-147.5,140,230,245,257.5,257.5,670,1,SBD,Raw
Stylianos Mourlas,M,,Masters 1,120,118.85,200,210,220,220,205,-215,-215,205,220,-240,245,245,670,2,SBD,Raw
Anestis Tsapakidis,M,,Masters 1,120+,154.54,260,275,290,290,170,182.5,-195,182.5,240,250,260,260,732.5,1,SBD,Raw
Konstantinos Lazaris,M,,Masters 2,83,81,175,180,190,190,120,-130,,120,200,220,-232.5,220,530,1,SBD,Raw
Michail Sakellaris,M,,Masters 2,105,100,165,175,-185,175,115,-125,125,125,195,205,-215,205,505,1,SBD,Raw
Xristos Gkiokas,M,,Masters 3,105,100,80,100,-120,100,-80,80,87.5,87.5,100,112.5,130,130,317.5,1,SBD,Raw
